<?xml version="1.0" encoding="UTF-8"?>
<svg width="100px" height="100px" viewBox="0 0 100 100" version="1.1" xmlns="http://www.w3.org/2000/svg" xmlns:xlink="http://www.w3.org/1999/xlink">
    <!-- Generator: Sketch 64 (93537) - https://sketch.com -->
    <title>Group</title>
    <desc>Created with Sketch.</desc>
    <g id="Page-1" stroke="none" stroke-width="1" fill="none" fill-rule="evenodd">
        <g id="Group" transform="translate(-0.150913, -0.425198)">
            <rect id="Rectangle-Copy-3" fill="#FFFFFF" x="0.1509125" y="0.425197917" width="100" height="100" rx="20"></rect>
            <g id="Group-9" transform="translate(13.150913, 17.425198)"></g>
            <path d="M73.4414917,19.5544167 C77.8568875,19.5544167 81.4492,23.0264583 81.4492,27.2934375 C81.4492,31.5249583 77.8568875,34.9672917 73.4414917,34.9672917 C69.0256,34.9672917 65.4332875,31.4957292 65.4332875,27.2277917 C65.4332875,22.9972292 69.0256,19.5544167 73.4414917,19.5544167 M73.4414917,36.5217083 C78.7439333,36.5217083 83.0581792,32.3524792 83.0581792,27.2277917 C83.0581792,22.0532708 78.834175,18 73.4414917,18 C68.0864917,18 63.8922375,22.0820208 63.8922375,27.2934375 C63.8922375,32.3821875 68.1762375,36.5217083 73.4414917,36.5217083" id="Fill-1" fill="#0069B7"></path>
            <path d="M71.0945637,31.5358833 L71.1942262,31.5713417 C71.3186804,31.6317167 71.4793304,31.6758 71.6687387,31.7026333 C71.7044387,31.7203625 71.7807971,31.7333 71.8611221,31.7471958 C71.9602887,31.764925 72.0678846,31.78505 72.1734971,31.8200292 C72.3336512,31.8703417 72.4382721,31.8703417 72.6281762,31.8703417 L73.0436846,31.8703417 L73.0436846,33.1808625 L74.1102221,33.1808625 L74.1122054,32.0538625 L74.1573262,31.8104458 L74.2644262,31.8104458 L74.3814429,31.8152375 C74.5688679,31.7543833 74.7458804,31.6973625 74.9799137,31.5569667 C75.0795762,31.5248625 75.1618846,31.465925 75.2952637,31.3700917 C75.3473262,31.333675 75.3998846,31.2967792 75.4142637,31.2924667 C75.5431804,31.1678833 75.6646596,31.0504875 75.8198554,30.8348625 C75.8714221,30.7859875 75.9165429,30.7045292 75.9725721,30.6043833 C76.0196762,30.5190917 76.0697554,30.4294875 76.0905804,30.4170292 L76.2938721,29.8286125 C76.3469262,29.6728833 76.3469262,29.499425 76.3469262,29.2588833 C76.3469262,29.0753625 76.3469262,28.9742583 76.2943679,28.8204458 C76.2710637,28.7548 76.2556929,28.6968208 76.2403221,28.6398 C76.2115637,28.5315083 76.1922262,28.4601125 76.1044637,28.3278625 L76.0499221,28.2143 C76.0043054,28.1170292 75.9527387,28.0073 75.8867929,27.9430917 C75.8094429,27.8683417 75.7504387,27.7931125 75.6909387,27.7174042 C75.6487929,27.6618208 75.6061512,27.6062375 75.5456596,27.5477792 C75.4241804,27.4313417 75.3200554,27.3297583 75.0736262,27.2229042 C75.0061929,27.1577375 74.8901679,27.1069458 74.7855471,27.061425 L74.7091887,27.0259667 C74.5812637,26.9852375 74.4801137,26.9272583 74.3814429,26.8702375 C74.3075637,26.8275917 74.2381471,26.7868625 74.1662512,26.7633833 C73.9406471,26.6910292 73.7676012,26.6340083 73.6709137,26.578425 C73.5206762,26.5621333 73.3392012,26.4658208 73.2167304,26.3704667 C73.1517762,26.3498625 73.0540971,26.3182375 72.9469971,26.2406125 C72.8815471,26.21905 72.7823804,26.1879042 72.7005679,26.1088417 L72.4947971,25.9104667 C72.4194304,25.8357167 72.3048929,25.7250292 72.3034054,25.5798417 C72.2121721,25.4428 72.2121721,25.2770083 72.2121721,25.1974667 L72.2121721,24.8697167 C72.2121721,24.7940083 72.2364679,24.7230917 72.2607637,24.652175 C72.2677054,24.6334875 72.2781179,24.6028208 72.2805971,24.5965917 L72.2860512,24.5343 L72.3336512,24.4193 L72.3634012,24.3886333 C72.3847221,24.3258625 72.4174471,24.2314667 72.4977721,24.1538417 L72.7005679,23.9578625 C72.7932887,23.8682583 72.9544346,23.778175 73.1349179,23.7652375 C73.3168887,23.6813833 73.4324179,23.6813833 73.5772012,23.6813833 L73.9832887,23.6813833 C74.1255929,23.6813833 74.2411221,23.6813833 74.3606179,23.7479875 C74.4597846,23.7532583 74.5534971,23.7791333 74.6610929,23.8131542 C74.7409221,23.8131542 74.8138096,23.8371125 74.8857054,23.8596333 C74.9065304,23.8663417 74.9402471,23.8773625 74.9328096,23.8788 C75.0666846,23.8788 75.1623804,23.9166542 75.2079971,23.9353417 L75.3235262,23.9693625 L75.3329471,23.91905 L75.4653346,22.9036958 L75.4653346,22.8476333 C75.3899679,22.8457167 75.3175762,22.8212792 75.2040304,22.7815083 C75.1157721,22.7815083 75.0468512,22.7527583 75.0086721,22.7369458 C74.9729721,22.7225708 74.9566096,22.7168208 74.9328096,22.7168208 C74.8678554,22.7168208 74.8083554,22.7005292 74.7384429,22.6813625 C74.6888596,22.6669875 74.6328304,22.6516542 74.5941554,22.6516542 C74.4811054,22.6516542 74.3978054,22.6243417 74.3343387,22.6037375 C74.2966554,22.5917583 74.2758304,22.58505 74.1870762,22.58505 L73.9069304,22.58505 L73.9069304,21.3411333 L72.8403929,21.3411333 L72.8394012,22.3972167 L72.8037012,22.6435083 L72.6921387,22.6435083 L72.5800804,22.6377583 C72.3906721,22.6976542 72.2121721,22.7541958 71.9707012,22.898425 C71.8298846,22.9434667 71.7257596,23.0445708 71.6027929,23.1634042 C71.4748679,23.2870292 71.3533887,23.404425 71.1991846,23.6195708 C71.1089429,23.7072583 71.0509304,23.8754458 70.9953971,24.0388417 L70.7921054,24.6272583 C70.7390512,24.7820292 70.7390512,25.0225708 70.7390512,25.1974667 C70.7390512,25.3800292 70.7390512,25.4806542 70.7921054,25.6359042 C70.8149137,25.7005917 70.8302846,25.75905 70.8456554,25.8155917 C70.8744137,25.9234042 70.8937512,25.9952792 70.9800262,26.1236958 C71.0117596,26.1850292 71.0593596,26.2607375 71.1059679,26.336925 C71.1699304,26.4394667 71.2026554,26.4945708 71.2190179,26.532425 C71.2874429,26.6009458 71.3414887,26.6699458 71.4019804,26.7485292 C71.4431346,26.8007583 71.4837929,26.8539458 71.5393262,26.9076125 C71.6613012,27.02405 71.7659221,27.1251542 72.0128471,27.2334458 C72.0782971,27.297175 72.1938262,27.3474875 72.2994387,27.3930083 L72.3767887,27.4303833 C72.5339679,27.4802167 72.6856929,27.5611958 72.8255179,27.6383417 L72.9197262,27.6924875 C73.1458262,27.7643625 73.3178804,27.8218625 73.4150637,27.8764875 C73.5667887,27.8923 73.7487596,27.9905292 73.8722221,28.0858833 C73.9361846,28.1069667 74.0338637,28.1381125 74.1156762,28.217175 C74.1350137,28.2363417 74.1682346,28.2694042 74.1791429,28.2694042 C74.1806304,28.2694042 74.2351721,28.2674875 74.2351721,28.2674875 L74.5207721,28.5434875 C74.6045679,28.6244667 74.6372929,28.7078417 74.6635721,28.7744458 C74.6769596,28.8070292 74.6913387,28.8434458 74.7305096,28.9546125 L74.7513346,29.0202583 L74.7533179,29.0341542 C74.7751346,29.1089042 74.8058762,29.2100083 74.8058762,29.32405 L74.8058762,29.6518 C74.8058762,29.804175 74.6953054,30.0015917 74.5887012,30.1046125 L74.3859054,30.3005917 C74.3105387,30.373425 74.2173221,30.4649458 74.1146846,30.4965708 C74.0328721,30.5765917 73.9342012,30.6082167 73.8390012,30.6316958 L73.7854512,30.6733833 L73.6396762,30.7203417 L73.6034804,30.7236958 C73.5266262,30.7452583 73.4225012,30.7740083 73.3059804,30.7740083 L72.4248846,30.7740083 C72.3078679,30.7740083 72.2037429,30.7452583 72.0852387,30.7083625 C71.8819471,30.7083625 71.7004721,30.6201958 71.5551929,30.5483208 C71.5140387,30.5291542 71.4684221,30.5176542 71.4084262,30.5042375 C71.3285971,30.4850708 71.2676096,30.4687792 71.2224887,30.4438625 C71.1431554,30.4333208 71.0841512,30.402175 71.0687804,30.3810917 C70.9671346,30.3810917 70.8882971,30.3422792 70.8585471,30.3259875 L70.7400429,30.2866958 L70.6810387,30.2574667 L70.6691387,30.3365292 L70.5387346,31.4587375 C70.5813762,31.4529875 70.6240179,31.4505917 70.6671554,31.4505917 C70.8367304,31.4505917 70.9656471,31.4937167 71.0945637,31.5358833" id="Fill-3" fill="#0069B7"></path>
            <path d="M26.3964283,52.8330687 C26.5436908,52.8330687 26.6954158,52.7832354 26.84367,52.6864437 L41.679995,42.4461729 L56.0546992,48.2014437 C56.1394867,48.2335479 56.2406367,48.2507979 56.3477367,48.2507979 C56.5416075,48.2507979 56.7448992,48.1942562 56.8629075,48.1108812 L68.330045,39.3234437 C68.6607658,39.0948812 68.7281992,38.5462354 68.4688783,38.1940479 C68.3350033,38.0134021 68.0935325,37.9060687 67.8223117,37.9060687 C67.6319117,37.9060687 67.443495,37.9606937 67.3116033,38.0512562 L56.2004742,46.6034229 L41.8842783,40.8433604 C41.7984992,40.8102979 41.7062742,40.7940062 41.6105783,40.7940062 C41.4380283,40.7940062 41.2649825,40.8476729 41.1335867,40.9435062 L25.9491867,51.4247979 C25.5926825,51.6696521 25.5009533,52.1622354 25.75482,52.5067562 C25.9318325,52.7904229 26.2328033,52.8330687 26.3964283,52.8330687" id="Fill-5" fill="#0069B7"></path>
            <path d="M69.2968208,74.2064896 L77.6531,74.2064896 L77.6531,44.3826771 L69.2968208,44.3826771 L69.2968208,74.2064896 Z M53.4346167,74.2064896 L61.7908958,74.2064896 L61.7908958,54.8639688 L53.4346167,54.8639688 L53.4346167,74.2064896 Z M37.63935,74.2064896 L45.996125,74.2064896 L45.996125,53.2918229 L37.63935,53.2918229 L37.63935,74.2064896 Z M21.7776417,74.2064896 L30.133425,74.2064896 L30.133425,59.4491146 L21.7776417,59.4491146 L21.7776417,74.2064896 Z M85.1337375,74.4412812 C84.9954,74.2922604 84.7856625,74.2064896 84.5585708,74.2064896 L79.2620792,74.2064896 L79.2620792,43.6049896 C79.2620792,43.1689479 78.90855,42.8277813 78.4573417,42.8277813 L68.493075,42.8277813 C68.0413708,42.8277813 67.6888333,43.1689479 67.6888333,43.6049896 L67.6888333,74.2064896 L63.4673083,74.2064896 L63.4673083,54.0872396 C63.4673083,53.6511979 63.114275,53.3095521 62.6630667,53.3095521 L52.630375,53.3095521 C52.1791667,53.3095521 51.8256375,53.6511979 51.8256375,54.0872396 L51.8256375,74.2064896 L47.6051042,74.2064896 L47.6051042,52.5141354 C47.6051042,52.0785729 47.251575,51.7378854 46.8008625,51.7378854 L36.8356042,51.7378854 C36.3848917,51.7378854 36.0313625,52.0785729 36.0313625,52.5141354 L36.0313625,74.2064896 L31.8103333,74.2064896 L31.8103333,58.6723854 C31.8103333,58.2363437 31.4568042,57.8946979 31.0060917,57.8946979 L20.9734,57.8946979 C20.5226875,57.8946979 20.1691583,58.2363437 20.1691583,58.6723854 L20.1691583,74.2064896 L14.8042417,74.2064896 C14.3535292,74.2064896 14,74.5481354 14,74.9841771 C14,75.4202187 14.3535292,75.7613854 14.8042417,75.7613854 L84.4901458,75.7613854 C84.9487917,75.7613854 85.2948833,75.4202187 85.2968667,74.9544687 C85.3191792,74.7613646 85.2611667,74.5792812 85.1337375,74.4412812 L85.1337375,74.4412812 Z" id="Fill-7" fill="#0069B7"></path>
        </g>
    </g>
</svg>