<?xml version="1.0" encoding="UTF-8"?>
<svg width="100px" height="100px" viewBox="0 0 100 100" version="1.1" xmlns="http://www.w3.org/2000/svg" xmlns:xlink="http://www.w3.org/1999/xlink">
    <!-- Generator: Sketch 64 (93537) - https://sketch.com -->
    <title>Group</title>
    <desc>Created with Sketch.</desc>
    <g id="Page-1" stroke="none" stroke-width="1" fill="none" fill-rule="evenodd">
        <g id="Group">
            <rect id="Rectangle-Copy" fill="#FFFFFF" x="0" y="0" width="100" height="100" rx="20"></rect>
            <g id="Group-7" transform="translate(24.000000, 24.000000)" fill="#FF0015">
                <path d="M20.4332354,54.8250736 L27.4063927,54.8640752 L27.445562,54.6986887 L27.445562,36.0593876 L20.4734222,36.0208797 L20.4332354,54.8250736 Z M28.919753,53.014709 L30.7439244,53.014709 L34.4095628,54.6201919 L38.8270487,56.5401559 L49.7893728,56.5510171 C50.6673761,56.5510171 51.3810717,55.857875 51.3810717,55.0062582 L51.3810717,53.3997879 L47.4641392,53.3997879 L47.4641392,51.9522861 L52.1278324,51.9522861 C53.005327,51.9522861 53.7195313,51.2586503 53.7195313,50.4065398 L53.7195313,48.2412114 L47.4641392,48.2412114 L47.4641392,46.7927222 L54.4657833,46.7927222 C55.3437866,46.7927222 56.0574822,46.0995801 56.0574822,45.2479632 L56.0574822,42.5682089 L47.4641392,42.5682089 L47.4641392,41.119226 L56.8617251,41.119226 C58.0296831,41.119226 58.9799208,40.1965176 58.9799208,39.0625096 C58.9799208,37.9285015 58.0296831,37.0062868 56.8617251,37.0062868 L45.7279716,37.0062868 L45.7279716,29.7149655 C45.7279716,26.6372962 43.3640774,23.9935812 40.2310401,23.5655512 L40.0819932,23.5458036 L40.0819932,27.6691102 C40.0819932,30.9511675 38.2649435,34.0120513 35.3399614,35.6580169 L30.7571504,38.2365646 L28.919753,38.2365646 L28.919753,53.014709 Z M38.505555,58 L35.4004958,56.6379067 L30.4224307,54.4745531 L28.919753,54.4636919 L28.919753,54.6986887 C28.919753,55.5789397 28.1816401,56.2952852 27.2756587,56.2952852 L20.6031388,56.2952852 C19.6971573,56.2952852 18.9595532,55.5789397 18.9595532,54.6986887 L18.9595532,36.1857725 C18.9595532,35.3060153 19.6971573,34.5901634 20.6031388,34.5901634 L27.2756587,34.5901634 C28.1816401,34.5901634 28.919753,35.3060153 28.919753,36.1857725 L28.919753,36.7885691 L30.3547746,36.7885691 L34.5916747,34.4050293 C37.0578161,33.0162767 38.589998,30.4357542 38.589998,27.6691102 L38.589998,22.056338 L39.3357413,22.056338 C43.6830276,22.056338 47.2199668,25.4919332 47.2199668,29.7149655 L47.2199668,35.5577976 L56.8617251,35.5577976 C58.8532564,35.5577976 60.4734421,37.1297096 60.4734421,39.0625096 C60.4734421,40.6887275 59.2866624,42.1278365 57.6517246,42.483294 L57.5494774,42.5060038 L57.5494774,45.2479632 C57.5494774,46.5799414 56.6277265,47.7647996 55.3071607,48.1286498 L55.2115265,48.1543217 L55.2115265,50.4065398 C55.2115265,51.7385179 54.2892669,52.9228825 52.9681924,53.2872264 L52.8730669,53.3128983 L52.8730669,55.0062582 C52.8730669,56.656667 51.4899319,58 49.7893728,58 L38.505555,58 Z" id="Fill-1"></path>
                <path d="M8.1531639,31.6980238 L18.9714963,25.3542072 L32.7621885,25.3542072 C33.656591,25.3542072 34.3836169,24.6497287 34.3836169,23.7847996 L34.3836169,3.04104076 C34.3836169,2.1756102 33.656591,1.47163308 32.7621885,1.47163308 L3.46299162,1.47163308 C2.56910728,1.47163308 1.84052677,2.1756102 1.84052677,3.04104076 L1.84052677,23.7847996 C1.84052677,24.6497287 2.56910728,25.3542072 3.46299162,25.3542072 L8.1531639,25.3542072 L8.1531639,31.6980238 Z M6.63330142,26.8248375 L3.46299162,26.8248375 C1.73015148,26.8248375 0.320664288,25.4615086 0.320664288,23.7847996 L0.320664288,3.04104076 C0.320664288,1.36433172 1.73015148,0 3.46299162,0 L32.7621885,0 C34.4945104,0 35.9039976,1.36433172 35.9039976,3.04104076 L35.9039976,23.7847996 C35.9039976,25.4615086 34.4945104,26.8248375 32.7621885,26.8248375 L19.3969334,26.8248375 L6.63330142,34.3098592 L6.63330142,26.8248375 Z" id="Fill-3"></path>
                <path d="M13.766135,19.3829526 L17.6879121,17.4737476 L21.6118431,19.3829526 L20.8622738,15.3392265 L24.0355584,12.475419 L19.6501469,11.885709 L17.6879121,8.20637687 L15.7272928,11.885709 L11.3418812,12.475419 L14.5151659,15.3392265 L13.766135,19.3829526 Z M12.8167882,15.8496771 L7.94566429,11.4540193 L14.6783265,10.5482685 L17.6879121,4.90140845 L20.6991132,10.5482685 L27.4317754,11.4540193 L22.560113,15.8496771 L23.7097758,22.056338 L17.6889891,19.1257333 L11.6676639,22.056338 L12.8167882,15.8496771 Z" id="Fill-5"></path>
            </g>
        </g>
    </g>
</svg>