<?xml version="1.0" encoding="UTF-8"?>
<svg width="100px" height="100px" viewBox="0 0 100 100" version="1.1" xmlns="http://www.w3.org/2000/svg" xmlns:xlink="http://www.w3.org/1999/xlink">
    <!-- Generator: Sketch 64 (93537) - https://sketch.com -->
    <title>Group</title>
    <desc>Created with Sketch.</desc>
    <g id="Page-1" stroke="none" stroke-width="1" fill="none" fill-rule="evenodd">
        <g id="Group">
            <rect id="Rectangle" fill="#FFFFFF" x="0" y="0" width="100" height="100" rx="20"></rect>
            <path d="M38.9226794,39.2293479 C39.0426504,39.2293479 39.1800445,39.2293479 39.3383464,39.2575102 C39.7878641,39.2842645 40.180632,39.4490145 40.5002227,39.7273527 C40.8626245,40.042302 41.0712047,40.4567584 41.0712047,40.8632355 L41.0712047,44.4027778 L41.6322307,44.2718227 C45.6161621,43.3391784 49.2252466,41.1612874 51.7929235,38.1394636 C52.3031734,37.5381967 53.0931895,37.1814732 53.9085937,37.1814732 L57.4151304,37.1814732 C57.6461118,37.1814732 57.8054093,37.0763336 57.8984988,36.9885608 C58.0319105,36.8632382 58.1030966,36.7055289 58.1030966,36.5327996 L58.125,23.6607127 L53.9349774,23.6607127 C53.9051091,23.6607127 53.8762364,23.6597739 53.8473637,23.6569577 C53.1937461,23.593123 52.4978151,23.274888 51.9263352,22.7839238 C50.0267123,21.392702 47.6865321,20.6388889 45.3100122,20.6388889 C45.1293091,20.6388889 44.9476104,20.6431132 44.7659116,20.6520313 L25.6462266,21.5264734 C25.0652885,21.5278815 24.4564733,22.0991085 24.2747745,22.7745363 C24.1319046,23.3589058 24.4549798,23.9751926 25.0244685,24.2164504 L25.1125799,24.2535309 L27.2561272,24.2535309 C27.7255571,24.2535309 28.1068755,24.61354 28.1068755,25.0561588 C28.1068755,25.4978389 27.7255571,25.857848 27.2561272,25.857848 L25.0329312,25.857848 C24.1348914,25.8986835 23.4334845,26.5149703 23.342884,27.3251082 C23.2582572,28.0892475 23.7291805,28.8064496 24.487835,29.0697679 L24.5635013,29.0960528 L27.2561272,29.0960528 C27.7255571,29.0960528 28.1068755,29.4560619 28.1068755,29.8982113 C28.1068755,30.3408301 27.7255571,30.7003699 27.2561272,30.7003699 L24.5077471,30.7003699 C23.4548901,30.7726534 22.6534244,31.5443027 22.6106132,32.4952525 C22.5682998,33.4377536 23.2761782,34.2840333 24.2568535,34.4642725 L24.2996648,34.4722518 L27.2561272,34.4722518 C27.7255571,34.4722518 28.1068755,34.8317916 28.1068755,35.273941 C28.1068755,35.7170292 27.7255571,36.076569 27.2561272,36.076569 L24.1533102,36.0751609 C23.5763545,36.0751609 23.0735716,36.3502135 22.7738932,36.8303821 C22.4647564,37.3232238 22.4642586,37.9366944 22.7723998,38.4304749 C23.0800431,38.9228472 23.6624747,39.2293479 24.2926955,39.2293479 L38.9226794,39.2293479 Z M54.8709963,39.9011985 C55.8321749,43.7636845 58.0854377,47.2616851 61.2159396,49.7509711 C61.8040004,50.1987537 62.2057449,51.0447258 62.2057449,51.8194378 L62.2057449,55.189363 C62.2057449,55.3824391 62.2659096,55.5389223 62.3833276,55.6554421 C62.5065681,55.7787027 62.6909436,55.8538146 62.8743487,55.8542961 L76.1862599,55.875 L76.2046975,51.8377343 C76.2076087,51.1463195 76.5157098,50.4510527 77.0717475,49.8742317 C78.6399097,47.8664323 79.4176832,45.4286654 79.2925019,42.9759723 L78.4108959,24.4599212 C78.4099255,23.8941744 77.8160423,23.3154274 77.0867887,23.1324625 C76.9878082,23.1098326 76.8965908,23.0992399 76.8053735,23.0992399 C76.2968852,23.0992399 75.8344909,23.4078728 75.6277962,23.8845446 L75.5914063,23.9673603 L75.5914063,26.018975 C75.5914063,26.4725354 75.2197441,26.8418357 74.7622018,26.8418357 C74.3051446,26.8418357 73.9334824,26.4725354 73.9334824,26.018975 L73.9334824,23.8912854 C73.8912701,23.0250909 73.2202403,22.3216389 72.3725982,22.2335269 C72.3148596,22.227749 72.2576061,22.2248601 72.2013231,22.2248601 C71.4861402,22.2248601 70.8388852,22.6822724 70.5904635,23.3630946 L70.5637775,23.4353176 L70.5637775,26.018975 C70.5637775,26.4725354 70.1921153,26.8418357 69.734573,26.8418357 C69.2770306,26.8418357 68.9053684,26.4725354 68.9053684,26.018975 L68.9053684,23.382354 C68.8301626,22.3683431 68.0062952,21.5671493 67.0276495,21.5257415 L66.9451657,21.524297 C66.017951,21.524297 65.2149472,22.194045 65.0368793,23.1175364 L65.0286309,23.1579813 L65.0286309,26.018975 C65.0286309,26.4725354 64.6569687,26.8418357 64.1999115,26.8418357 C63.7423692,26.8418357 63.3702218,26.4725354 63.3702218,26.018975 L63.3702218,23.0867212 C63.3862333,22.5017149 63.0863805,21.9990429 62.5473248,21.6836691 C62.2969623,21.5363342 62.0097246,21.4583333 61.7186054,21.4583333 C61.4284566,21.4583333 61.1426746,21.5358527 60.8927973,21.6817431 C60.410995,21.9629314 60.1111422,22.5262708 60.1111422,23.1522034 L60.088823,37.049353 C60.0883378,37.6637299 59.8442829,38.2424769 59.4022669,38.6806298 C58.9607361,39.1178197 58.3784977,39.3590445 57.7618101,39.3590445 L54.7361111,39.3590445 L54.8709963,39.9011985 Z M52.4933451,40.0712522 C49.8799856,42.8218066 46.5343194,44.8130475 42.8182041,45.8287271 L42.0277778,46.0444857 L42.6322214,46.5831481 C45.4684569,49.1086483 47.523363,52.3411123 48.5745693,55.9307277 L48.7974453,56.6944444 L49.3533717,56.1107711 C51.9682474,53.3651092 55.3134082,51.37925 59.027502,50.3674844 L59.8194444,50.1522151 L59.21399,49.6130634 C56.3747223,47.0836492 54.3208269,43.8467819 53.2726529,40.2512956 L53.0492715,39.4861111 L52.4933451,40.0712522 Z M36.8140511,70.1737041 C37.2719984,70.1737041 37.6444752,70.5424954 37.6444752,70.9975791 L37.6444752,73.9334473 C37.6284494,74.521103 37.9135132,75.0041473 38.4462472,75.3165352 C38.6968313,75.4635697 38.9843232,75.5416667 39.2757001,75.5416667 C39.5661057,75.5416667 39.851655,75.4640518 40.1022391,75.3184636 C40.62089,75.0157172 40.9214938,74.4892857 40.9064393,73.9107895 L40.9064393,59.955051 C40.9064393,59.3350959 41.1570235,58.7310495 41.5936031,58.2981415 C42.0219272,57.874393 42.6129366,57.6405841 43.2583364,57.6405841 L46.2638889,57.6405841 L46.1293699,57.0977619 C45.1673406,53.2300328 42.9115979,49.7277204 39.7778396,47.235366 C39.1659481,46.7248431 38.8099827,45.9641206 38.8099827,45.1870074 L38.8099827,41.125 L24.7986398,41.125 L24.7986398,45.1653138 C24.7986398,45.8354052 24.4994929,46.483803 23.9089691,47.091224 C22.351074,49.0880001 21.5803822,51.5427522 21.7081024,54.0408916 L22.5904887,72.5580726 C22.59146,73.2474472 23.2456011,73.7025309 23.893429,73.865474 C23.9988103,73.89006 24.0983641,73.9011479 24.1974322,73.9011479 C24.7073417,73.9011479 25.1691741,73.6094894 25.3731379,73.1587444 L25.4124738,73.0734163 L25.4124738,70.9975791 C25.4124738,70.5424954 25.7844649,70.1737041 26.2424123,70.1737041 C26.699874,70.1737041 27.0723507,70.5424954 27.0723507,70.9975791 L27.0723507,73.1505491 C27.1131435,74.0067234 27.7609714,74.6772969 28.6122775,74.7650355 C28.6749236,74.7717847 28.7365983,74.7751592 28.7977875,74.7751592 C29.514089,74.7751592 30.156575,74.3321275 30.3974466,73.6736061 L30.4236705,73.6027403 L30.4445525,70.99083 C30.4484375,70.540085 30.8204287,70.1737041 31.274491,70.1737041 C31.5032218,70.1751503 31.710585,70.2628889 31.8664717,70.419565 C32.021387,70.576241 32.106372,70.7840176 32.1044294,71.0038461 L32.0825762,73.6596257 C32.1602767,74.6686195 32.9673906,75.4322345 33.9614714,75.4741754 L34.0445138,75.4761038 C34.9856611,75.4756217 35.7986026,74.8142077 35.9758569,73.9025941 L35.9845982,73.8611352 L35.9845982,70.9975791 C35.9845982,70.5424954 36.3565894,70.1737041 36.8140511,70.1737041 L36.8140511,70.1737041 Z M43.5852536,59.0056146 C43.3813984,59.0056146 43.1984769,59.0675474 43.0828426,59.1749914 C42.9522557,59.2988569 42.8759968,59.4762099 42.875,59.6526245 L42.875,72.5247896 L47.0557771,72.5421496 C47.9280184,72.5477798 48.6023855,73.0193135 49.0335219,73.3744886 C50.947967,74.7773599 53.3050122,75.5416667 55.6899691,75.5416667 C55.8694016,75.5416667 56.0488341,75.537444 56.228765,75.5289986 L75.3737137,74.6755461 C76.0490777,74.6750769 76.5544792,74.0313514 76.7259369,73.3960712 C76.8699813,72.8072406 76.5579682,72.2165333 75.9862763,71.983347 L75.9020427,71.9490963 L73.7518433,71.928452 C73.5240637,71.9261061 73.3112369,71.8407139 73.1517413,71.6882279 C72.9927442,71.5352727 72.9060185,71.3330528 72.9085106,71.1191032 C72.912498,70.6808819 73.2927952,70.3252376 73.7563291,70.3252376 L75.9857779,70.3458818 C76.859016,70.3031858 77.5647838,69.6542991 77.6554969,68.8369741 C77.7402289,68.0797051 77.2781903,67.3712317 76.5320501,67.1136476 L76.4567882,67.0878423 L73.7603165,67.0878423 C73.2903031,67.0878423 72.9085106,66.7284445 72.9085106,66.2855313 C72.9085106,65.8435565 73.2903031,65.4841587 73.7603165,65.4841587 L76.5121132,65.4841587 C77.5528217,65.4114346 78.3453152,64.6321138 78.388678,63.6684022 C78.431044,62.7309651 77.7472069,61.9216163 76.7633187,61.743325 L76.7209527,61.7353488 L73.7603165,61.7353488 C73.2903031,61.7353488 72.9085106,61.375951 72.9085106,60.933507 C72.9085106,60.4915321 73.2903031,60.1316652 73.7603165,60.1316652 L76.7982083,60.1316652 C77.4117678,60.1316652 77.9086961,59.8417071 78.2261919,59.3359228 C78.5352146,58.8428065 78.535713,58.2295781 78.2276872,57.7359926 C77.9271378,57.2550752 77.3803671,56.979662 76.7279306,56.979662 L62.3414319,56.9585486 C61.7009576,56.9576102 61.0769313,56.7159785 60.6308422,56.2941788 C60.191731,55.8812936 59.950494,55.3177991 59.9509924,54.7087935 L59.950494,51.7777778 L59.3902658,51.9077428 C55.3824417,52.8339193 51.7529211,55.0147039 49.1710869,58.0480025 C48.5645053,58.6860978 47.8502643,59.0056146 47.0747172,59.0056146 L43.5852536,59.0056146 Z M55.8368632,78 C53.0705473,78 50.3415065,77.0869997 48.1507195,75.4301445 C47.7302554,75.0735938 47.456407,74.9279943 47.2248039,74.9279943 L42.9471033,74.9092538 L42.8347807,75.1889202 C42.5619264,75.8664625 42.0515048,76.4445358 41.3984435,76.8164633 C40.8815609,77.1095845 40.2911219,77.265275 39.6912399,77.265275 C39.0888729,77.265275 38.4964459,77.1086234 37.9785693,76.8126191 C37.7564092,76.6852796 37.5456801,76.5334332 37.3533401,76.3590021 L37.0596117,76.0927905 L36.7524641,76.3450669 C36.0830017,76.8962307 35.2271634,77.1994429 34.343493,77.1994429 L34.1814702,77.1965598 C33.151681,77.1537929 32.2138373,76.7227607 31.5399019,75.9817889 L31.2740055,75.6891482 L30.9434989,75.9111515 C30.36797,76.2974947 29.6875735,76.5017185 28.977357,76.5017185 C28.8536033,76.5017185 28.7278617,76.4954716 28.6011261,76.482978 C27.7104976,76.3921585 26.9038625,75.9894773 26.3308186,75.348455 L26.0882814,75.0774381 L25.7662238,75.2542718 C25.3149455,75.5022235 24.8005479,75.6329267 24.2796893,75.6329267 C24.0649842,75.6329267 23.8433211,75.6093809 23.620167,75.5632503 C23.620167,75.5632503 23.5471076,75.5478735 23.5381616,75.5459514 C22.0029208,75.1778681 20.9457965,74.0486309 20.9194554,72.7387158 L20.0159048,54.2716033 C19.8648161,51.3639377 20.7942107,48.5120132 22.632126,46.2400841 L22.6942513,46.1723298 C23.0173029,45.8604681 23.1768407,45.584646 23.1768407,45.3443827 L23.1768407,41.1926341 L22.8890763,41.0845156 C22.1689197,40.8125377 21.5615826,40.3171149 21.1788907,39.6890668 C20.5591286,38.6689091 20.5601226,37.4022414 21.1828667,36.3825642 C21.3160634,36.1648857 21.4760982,35.960662 21.6599891,35.7756593 L21.9412925,35.4916682 L21.6783782,35.1918196 C21.0635861,34.4888094 20.7464985,33.6075239 20.7857617,32.7113421 C20.8294979,31.7185744 21.2812732,30.8151846 22.0585851,30.1669544 L22.3672237,29.9098728 L22.1341295,29.586959 C21.6545221,28.9209493 21.438326,28.1151064 21.5243074,27.3164715 C21.6172469,26.4563291 22.040196,25.6797983 22.7136344,25.129115 L23.0004049,24.8950986 L22.8140289,24.5798733 C22.428852,23.9263573 22.3140444,23.1700086 22.4904803,22.4516216 C22.8090589,21.2080191 23.9153865,19.9423124 25.416831,19.9115587 L44.5181282,19.0153768 C44.7288573,19.0048053 44.9380953,19 45.1463394,19 C47.9066913,19 50.621816,19.9019482 52.7927229,21.5391018 L52.8563392,21.5909987 C53.1441037,21.8533661 53.4805744,22.0364467 53.7638658,22.0864215 L53.804123,22.0936294 L58.0624404,22.0936294 L58.172775,21.8105993 C58.4456294,21.1080696 58.9451169,20.5227884 59.5792921,20.1623935 C60.0961747,19.8683113 60.6861166,19.7131013 61.2864957,19.7131013 C61.8888627,19.7131013 62.4807927,19.8692724 62.9991663,20.1657572 C63.2262964,20.2959799 63.4414985,20.4516704 63.6383115,20.6299458 L63.934525,20.897599 L64.2416725,20.6414784 C64.9081529,20.0845482 65.7595182,19.7789334 66.6382186,19.7789334 L66.7967624,19.7818166 C67.8295336,19.8241029 68.7698624,20.2637846 69.4452888,21.0210943 L69.7126761,21.3209428 L70.0476558,21.0926927 C70.6356097,20.6904921 71.3204792,20.4780994 72.0272168,20.4780994 C72.1425213,20.4780994 72.2593169,20.4838657 72.3761125,20.4958789 C73.262268,20.5852568 74.0728791,21.0009122 74.660336,21.6645192 L74.9058553,21.9427441 L75.2318889,21.7572608 C75.6985742,21.4920102 76.2234089,21.3516965 76.7517225,21.3516965 C76.9758707,21.3516965 77.2000188,21.3776449 77.4191969,21.4276197 C78.7223375,21.7399619 80.0488372,22.8120164 80.0801483,24.2593621 L80.9846929,42.7500204 C81.1332966,45.6139581 80.1959499,48.4505058 78.3451126,50.7378117 L78.3167834,50.7685654 L78.3088314,50.7728902 L78.2467061,50.8449691 C78.1398505,50.9444381 77.8232599,51.2908977 77.8232599,51.6777215 L77.8232599,51.7142415 L77.829224,51.7541252 L77.8038768,55.8213012 L78.0971083,55.927978 C78.8127919,56.190826 79.3937879,56.6612614 79.7759828,57.288829 C80.3957449,58.3089867 80.3947509,59.5766155 79.7725038,60.5953316 C79.6378161,60.8149322 79.4772843,61.0225196 79.2958784,61.2104054 L79.020042,61.4963187 L79.2839503,61.792323 C79.8942694,62.4799563 80.208872,63.3583587 80.1691118,64.2675148 C80.1253755,65.261724 79.6790673,66.168958 78.9126894,66.8205519 L78.6105119,67.0776335 L78.8401271,67.3967031 C79.3083034,68.0502191 79.5180385,68.8546204 79.430566,69.6614243 C79.3386206,70.5143588 78.9176595,71.2956948 78.2472031,71.8622355 L77.9673907,72.0986545 L78.1527726,72.4085941 C78.5354645,73.0500969 78.6467931,73.8064456 78.4668782,74.5378068 C78.0836893,76.0288805 76.8888952,77.0841166 75.5584195,77.1105455 L56.4586134,77.9851037 C56.2478843,77.9947142 56.0421253,78 55.8368632,78 L55.8368632,78 Z" id="Fill-1" fill="#00B53A"></path>
        </g>
    </g>
</svg>